{
    "docs": [
        {
            "url": "https://www.themoviedb.org/t/p/original/pZIiPOoNhhzVpBuVEpDK7vbBz4l.jpg",
            "previewUrl": "https://www.themoviedb.org/t/p/w500/pZIiPOoNhhzVpBuVEpDK7vbBz4l.jpg",
            "height": 1152,
            "width": 2048,
            "language": null,
            "type": "backdrops",
            "movieId": 689,
            "id": "6011ae81c3bc36048af91b98"
        },
        {
            "url": "https://www.themoviedb.org/t/p/original/lvOLivVeX3DVVcwfVkxKf0R22D8.jpg",
            "previewUrl": "https://www.themoviedb.org/t/p/w500/lvOLivVeX3DVVcwfVkxKf0R22D8.jpg",
            "height": 1350,
            "width": 2400,
            "language": null,
            "type": "backdrops",
            "movieId": 689,
            "id": "6011ae81c3bc36048af91b99"
        },
        {
            "url": "https://www.themoviedb.org/t/p/original/5jkE2SzR5uR2egEb1rRhF22JyWN.jpg",
            "previewUrl": "https://www.themoviedb.org/t/p/w500/5jkE2SzR5uR2egEb1rRhF22JyWN.jpg",
            "height": 1080,
            "width": 1920,
            "language": null,
            "type": "backdrops",
            "movieId": 689,
            "id": "6011ae81c3bc36048af91b94"
        },
        {
            "url": "https://www.themoviedb.org/t/p/original/uC6JQ3EqNitVD32c1JXJk9Lk1Mr.jpg",
            "previewUrl": "https://www.themoviedb.org/t/p/w500/uC6JQ3EqNitVD32c1JXJk9Lk1Mr.jpg",
            "height": 964,
            "width": 1712,
            "language": "es",
            "type": "backdrops",
            "movieId": 689,
            "id": "6011ae81c3bc36048af91b97"
        },
        {
            "url": "https://www.themoviedb.org/t/p/original/pajKyahlPPggk0k5LiA2v4kwWqn.jpg",
            "previewUrl": "https://www.themoviedb.org/t/p/w500/pajKyahlPPggk0k5LiA2v4kwWqn.jpg",
            "height": 1080,
            "width": 1920,
            "language": null,
            "type": "backdrops",
            "movieId": 689,
            "id": "6011ae81c3bc36048af91b95"
        },
        {
            "url": "https://www.themoviedb.org/t/p/original/7Hyl3IiKsaskhBnbkBU9jpAj57F.jpg",
            "previewUrl": "https://www.themoviedb.org/t/p/w500/7Hyl3IiKsaskhBnbkBU9jpAj57F.jpg",
            "height": 1080,
            "width": 1920,
            "language": "en",
            "type": "backdrops",
            "movieId": 689,
            "id": "6011ae81c3bc36048af91b93"
        },
        {
            "url": "https://www.themoviedb.org/t/p/original/4GlSMUpzSd3cliYGFJVziSDX53S.jpg",
            "previewUrl": "https://www.themoviedb.org/t/p/w500/4GlSMUpzSd3cliYGFJVziSDX53S.jpg",
            "height": 2160,
            "width": 3840,
            "language": null,
            "type": "backdrops",
            "movieId": 689,
            "id": "6011ae81c3bc36048af91b91"
        },
        {
            "url": "https://www.themoviedb.org/t/p/original/hziiv14OpD73u9gAak4XDDfBKa2.jpg",
            "previewUrl": "https://www.themoviedb.org/t/p/w500/hziiv14OpD73u9gAak4XDDfBKa2.jpg",
            "height": 2160,
            "width": 3840,
            "language": null,
            "type": "backdrops",
            "movieId": 689,
            "id": "6011ae81c3bc36048af91b90"
        },
        {
            "url": "https://www.themoviedb.org/t/p/original/t3LicFpYHeYpwqm7L5wDpd22hL5.jpg",
            "previewUrl": "https://www.themoviedb.org/t/p/w500/t3LicFpYHeYpwqm7L5wDpd22hL5.jpg",
            "height": 1440,
            "width": 2560,
            "language": null,
            "type": "backdrops",
            "movieId": 689,
            "id": "6011ae81c3bc36048af91b92"
        },
        {
            "url": "https://www.themoviedb.org/t/p/original/qrKcg4CbBm3165QNT3kQWQnqlTM.jpg",
            "previewUrl": "https://www.themoviedb.org/t/p/w500/qrKcg4CbBm3165QNT3kQWQnqlTM.jpg",
            "height": 2160,
            "width": 3840,
            "language": "en",
            "type": "backdrops",
            "movieId": 689,
            "id": "6011ae81c3bc36048af91b96"
        }
    ],
    "total": 350,
    "limit": 10,
    "page": 1,
    "pages": 35
}